{"products":{"current_page":1,"data":[{"price":{"amount":null,"formatted":"\u20ba\u00a00.00","currency":"TRY","inCurrentCurrency":{"amount":0,"formatted":"\u20ba\u00a00.00","currency":"TRY"}},"special_price":null,"special_price_type":"fixed","selling_price":{"amount":null,"formatted":"\u20ba\u00a00.00","currency":"TRY","inCurrentCurrency":{"amount":0,"formatted":"\u20ba\u00a00.00","currency":"TRY"}},"special_price_start":null,"special_price_end":null,"options_count":0,"reviews_count":0,"manage_stock":0,"qty":"252.40","new_from":"2020-04-20T15:00:00.000000Z","new_to":"2020-05-21T15:00:00.000000Z","sale_unit_id":1,"list_variants_separately":false,"id":19,"slug":"fransiz-koyluleri-duck-kumas","base_image":{"id":12,"filename":"WhatsApp Image 2025-11-11 at 17.32.33.jpeg","path":"http:\/\/localhost:8001\/storage\/media\/12un1MEm4j2jv7kVtggjwi6DvGusatylOBswjfOV.jpg"},"additional_images":[],"media":[{"id":12,"filename":"WhatsApp Image 2025-11-11 at 17.32.33.jpeg","path":"http:\/\/localhost:8001\/storage\/media\/12un1MEm4j2jv7kVtggjwi6DvGusatylOBswjfOV.jpg"}],"formatted_price":"\u20ba\u00a00.00","formatted_price_range":"\u20ba\u00a0100.00 - \u20ba\u00a0100.00","has_percentage_special_price":false,"special_price_percent":null,"rating_percent":0,"does_manage_stock":false,"is_in_stock":false,"is_out_of_stock":true,"is_new":false,"variant":{"id":18,"uid":"1098301a7080fd264fd1215c210ca647","uids":"1xg8xnruyv7e","product_id":19,"name":"Mavi","price":{"amount":"100.0000","formatted":"\u20ba\u00a0100.00","currency":"TRY","inCurrentCurrency":{"amount":100,"formatted":"\u20ba\u00a0100.00","currency":"TRY"}},"special_price":null,"special_price_type":"fixed","special_price_start":null,"special_price_end":null,"selling_price":{"amount":"100.0000","formatted":"\u20ba\u00a0100.00","currency":"TRY","inCurrentCurrency":{"amount":100,"formatted":"\u20ba\u00a0100.00","currency":"TRY"}},"sku":"OQI7441","manage_stock":1,"qty":"50.70","in_stock":1,"is_default":true,"is_active":true,"position":1,"deleted_at":null,"created_at":"2025-11-29T20:09:30.000000Z","updated_at":"2025-11-29T20:12:44.000000Z","base_image":{"id":34,"filename":"havana-fransiz-koyluleri-panama-keteni.jpg","path":"http:\/\/localhost:8001\/storage\/media\/QNg0TyV4stPnE3w3FCPEMYSzUQqu6HCiR6OHZw28.jpg"},"additional_images":[],"media":[{"id":34,"filename":"havana-fransiz-koyluleri-panama-keteni.jpg","path":"http:\/\/localhost:8001\/storage\/media\/QNg0TyV4stPnE3w3FCPEMYSzUQqu6HCiR6OHZw28.jpg"}],"formatted_price":"\u20ba\u00a0100.00","has_percentage_special_price":false,"special_price_percent":null,"does_manage_stock":true,"is_in_stock":true,"is_out_of_stock":false,"files":[{"id":34,"filename":"havana-fransiz-koyluleri-panama-keteni.jpg","path":"http:\/\/localhost:8001\/storage\/media\/QNg0TyV4stPnE3w3FCPEMYSzUQqu6HCiR6OHZw28.jpg"}]},"unit_min":0.5,"unit_step":0.5,"unit_suffix":"m","unit_decimal":true,"unit_info_top":"Bu \u00dcr\u00fcn Metre \u0130le Sat\u0131lmaktad\u0131r L\u00fctfen Sat\u0131n Almak \u0130stedi\u011finiz \u00d6l\u00e7\u00fcy\u00fc Yaz\u0131p Sepete Ekleyin","unit_info_bottom":"Min. Kuma\u015f Kesimi 0.5m","unit_default_qty":1,"name":"Frans\u0131z K\u00f6yl\u00fcleri Duck Kuma\u015f","sale_unit":{"id":1,"code":"1","name":"Metre","label":"Metre","step":"0.50","min":"0.50","default_qty":"1.00","is_default":false,"is_decimal_stock":true,"short_suffix":"m","info":"test info 1","info_top":"Bu \u00dcr\u00fcn Metre \u0130le Sat\u0131lmaktad\u0131r L\u00fctfen Sat\u0131n Almak \u0130stedi\u011finiz \u00d6l\u00e7\u00fcy\u00fc Yaz\u0131p Sepete Ekleyin","info_bottom":"Min. Kuma\u015f Kesimi 0.5m","created_at":"2025-11-26T23:40:54.000000Z","updated_at":"2025-11-27T01:35:18.000000Z"},"reviews":[],"variants":[{"id":18,"uid":"1098301a7080fd264fd1215c210ca647","uids":"1xg8xnruyv7e","product_id":19,"name":"Mavi","price":{"amount":"100.0000","formatted":"\u20ba\u00a0100.00","currency":"TRY","inCurrentCurrency":{"amount":100,"formatted":"\u20ba\u00a0100.00","currency":"TRY"}},"special_price":null,"special_price_type":"fixed","special_price_start":null,"special_price_end":null,"selling_price":{"amount":"100.0000","formatted":"\u20ba\u00a0100.00","currency":"TRY","inCurrentCurrency":{"amount":100,"formatted":"\u20ba\u00a0100.00","currency":"TRY"}},"sku":"OQI7441","manage_stock":1,"qty":"50.70","in_stock":1,"is_default":true,"is_active":true,"position":1,"deleted_at":null,"created_at":"2025-11-29T20:09:30.000000Z","updated_at":"2025-11-29T20:12:44.000000Z","base_image":{"id":34,"filename":"havana-fransiz-koyluleri-panama-keteni.jpg","path":"http:\/\/localhost:8001\/storage\/media\/QNg0TyV4stPnE3w3FCPEMYSzUQqu6HCiR6OHZw28.jpg"},"additional_images":[],"media":[{"id":34,"filename":"havana-fransiz-koyluleri-panama-keteni.jpg","path":"http:\/\/localhost:8001\/storage\/media\/QNg0TyV4stPnE3w3FCPEMYSzUQqu6HCiR6OHZw28.jpg"}],"formatted_price":"\u20ba\u00a0100.00","has_percentage_special_price":false,"special_price_percent":null,"does_manage_stock":true,"is_in_stock":true,"is_out_of_stock":false,"files":[{"id":34,"filename":"havana-fransiz-koyluleri-panama-keteni.jpg","path":"http:\/\/localhost:8001\/storage\/media\/QNg0TyV4stPnE3w3FCPEMYSzUQqu6HCiR6OHZw28.jpg"}]},{"id":19,"uid":"f414c148387d25f39b50ee011a9e0f35","uids":"kb0cdffdbbrm","product_id":19,"name":"Kahverengi","price":{"amount":"100.0000","formatted":"\u20ba\u00a0100.00","currency":"TRY","inCurrentCurrency":{"amount":100,"formatted":"\u20ba\u00a0100.00","currency":"TRY"}},"special_price":null,"special_price_type":"fixed","special_price_start":null,"special_price_end":null,"selling_price":{"amount":"100.0000","formatted":"\u20ba\u00a0100.00","currency":"TRY","inCurrentCurrency":{"amount":100,"formatted":"\u20ba\u00a0100.00","currency":"TRY"}},"sku":"OGC4472","manage_stock":1,"qty":"50.50","in_stock":1,"is_default":false,"is_active":true,"position":2,"deleted_at":null,"created_at":"2025-11-29T20:09:30.000000Z","updated_at":"2025-11-29T20:12:44.000000Z","base_image":{"id":32,"filename":"havana-fransiz-koyluleri-panama-keteni (2).jpg","path":"http:\/\/localhost:8001\/storage\/media\/2Uq0x3ke7PL4O9pvZvjYXA2RpYLgexlbccryNRld.jpg"},"additional_images":[],"media":[{"id":32,"filename":"havana-fransiz-koyluleri-panama-keteni (2).jpg","path":"http:\/\/localhost:8001\/storage\/media\/2Uq0x3ke7PL4O9pvZvjYXA2RpYLgexlbccryNRld.jpg"}],"formatted_price":"\u20ba\u00a0100.00","has_percentage_special_price":false,"special_price_percent":null,"does_manage_stock":true,"is_in_stock":true,"is_out_of_stock":false,"files":[{"id":32,"filename":"havana-fransiz-koyluleri-panama-keteni (2).jpg","path":"http:\/\/localhost:8001\/storage\/media\/2Uq0x3ke7PL4O9pvZvjYXA2RpYLgexlbccryNRld.jpg"}]},{"id":20,"uid":"f0e811c6508d06a08d95ef7fe9a6babf","uids":"dir2jh2wj3ci","product_id":19,"name":"Bordo","price":{"amount":"100.0000","formatted":"\u20ba\u00a0100.00","currency":"TRY","inCurrentCurrency":{"amount":100,"formatted":"\u20ba\u00a0100.00","currency":"TRY"}},"special_price":null,"special_price_type":"fixed","special_price_start":null,"special_price_end":null,"selling_price":{"amount":"100.0000","formatted":"\u20ba\u00a0100.00","currency":"TRY","inCurrentCurrency":{"amount":100,"formatted":"\u20ba\u00a0100.00","currency":"TRY"}},"sku":"MLC1168","manage_stock":1,"qty":"50.20","in_stock":1,"is_default":false,"is_active":true,"position":3,"deleted_at":null,"created_at":"2025-11-29T20:09:30.000000Z","updated_at":"2025-11-29T20:12:44.000000Z","base_image":{"id":30,"filename":"havana-fransiz-koyluleri-panama-keteni (4).jpg","path":"http:\/\/localhost:8001\/storage\/media\/DlGkymuiRelpSfmfCt2EvymAveZXVPVmJW6TtnzG.jpg"},"additional_images":[],"media":[{"id":30,"filename":"havana-fransiz-koyluleri-panama-keteni (4).jpg","path":"http:\/\/localhost:8001\/storage\/media\/DlGkymuiRelpSfmfCt2EvymAveZXVPVmJW6TtnzG.jpg"}],"formatted_price":"\u20ba\u00a0100.00","has_percentage_special_price":false,"special_price_percent":null,"does_manage_stock":true,"is_in_stock":true,"is_out_of_stock":false,"files":[{"id":30,"filename":"havana-fransiz-koyluleri-panama-keteni (4).jpg","path":"http:\/\/localhost:8001\/storage\/media\/DlGkymuiRelpSfmfCt2EvymAveZXVPVmJW6TtnzG.jpg"}]},{"id":21,"uid":"07e28170e5b93350e3dd0ea7868db850","uids":"hrrlhvy48fjv","product_id":19,"name":"Ye\u015fil","price":{"amount":"100.0000","formatted":"\u20ba\u00a0100.00","currency":"TRY","inCurrentCurrency":{"amount":100,"formatted":"\u20ba\u00a0100.00","currency":"TRY"}},"special_price":null,"special_price_type":"fixed","special_price_start":null,"special_price_end":null,"selling_price":{"amount":"100.0000","formatted":"\u20ba\u00a0100.00","currency":"TRY","inCurrentCurrency":{"amount":100,"formatted":"\u20ba\u00a0100.00","currency":"TRY"}},"sku":"XMW4564","manage_stock":1,"qty":"50.10","in_stock":1,"is_default":false,"is_active":true,"position":4,"deleted_at":null,"created_at":"2025-11-29T20:09:30.000000Z","updated_at":"2025-11-29T20:12:44.000000Z","base_image":{"id":33,"filename":"havana-fransiz-koyluleri-panama-keteni (1).jpg","path":"http:\/\/localhost:8001\/storage\/media\/Bw4DeicAtLIq2HqPma6fBYAStigVO7BccasvF8UF.jpg"},"additional_images":[],"media":[{"id":33,"filename":"havana-fransiz-koyluleri-panama-keteni (1).jpg","path":"http:\/\/localhost:8001\/storage\/media\/Bw4DeicAtLIq2HqPma6fBYAStigVO7BccasvF8UF.jpg"}],"formatted_price":"\u20ba\u00a0100.00","has_percentage_special_price":false,"special_price_percent":null,"does_manage_stock":true,"is_in_stock":true,"is_out_of_stock":false,"files":[{"id":33,"filename":"havana-fransiz-koyluleri-panama-keteni (1).jpg","path":"http:\/\/localhost:8001\/storage\/media\/Bw4DeicAtLIq2HqPma6fBYAStigVO7BccasvF8UF.jpg"}]},{"id":22,"uid":"4245588142533d1e723de6e801eea4ba","uids":"279862j3jvu1","product_id":19,"name":"Antrasit","price":{"amount":"100.0000","formatted":"\u20ba\u00a0100.00","currency":"TRY","inCurrentCurrency":{"amount":100,"formatted":"\u20ba\u00a0100.00","currency":"TRY"}},"special_price":null,"special_price_type":"fixed","special_price_start":null,"special_price_end":null,"selling_price":{"amount":"100.0000","formatted":"\u20ba\u00a0100.00","currency":"TRY","inCurrentCurrency":{"amount":100,"formatted":"\u20ba\u00a0100.00","currency":"TRY"}},"sku":"GRU9877","manage_stock":1,"qty":"50.90","in_stock":1,"is_default":false,"is_active":true,"position":5,"deleted_at":null,"created_at":"2025-11-29T20:09:30.000000Z","updated_at":"2025-11-29T20:12:44.000000Z","base_image":{"id":31,"filename":"havana-fransiz-koyluleri-panama-keteni (3).jpg","path":"http:\/\/localhost:8001\/storage\/media\/8vtnqdiDM4WB8UysdAjqPCteL6s2lrBOdVmtXwZy.jpg"},"additional_images":[],"media":[{"id":31,"filename":"havana-fransiz-koyluleri-panama-keteni (3).jpg","path":"http:\/\/localhost:8001\/storage\/media\/8vtnqdiDM4WB8UysdAjqPCteL6s2lrBOdVmtXwZy.jpg"}],"formatted_price":"\u20ba\u00a0100.00","has_percentage_special_price":false,"special_price_percent":null,"does_manage_stock":true,"is_in_stock":true,"is_out_of_stock":false,"files":[{"id":31,"filename":"havana-fransiz-koyluleri-panama-keteni (3).jpg","path":"http:\/\/localhost:8001\/storage\/media\/8vtnqdiDM4WB8UysdAjqPCteL6s2lrBOdVmtXwZy.jpg"}]}]},{"price":{"amount":"69.0000","formatted":"\u20ba\u00a069.00","currency":"TRY","inCurrentCurrency":{"amount":69,"formatted":"\u20ba\u00a069.00","currency":"TRY"}},"special_price":{"amount":"43.0000","formatted":"\u20ba\u00a043.00","currency":"TRY","inCurrentCurrency":{"amount":43,"formatted":"\u20ba\u00a043.00","currency":"TRY"}},"special_price_type":"fixed","selling_price":{"amount":"43.0000","formatted":"\u20ba\u00a043.00","currency":"TRY","inCurrentCurrency":{"amount":43,"formatted":"\u20ba\u00a043.00","currency":"TRY"}},"special_price_start":"2025-11-28T21:00:00.000000Z","special_price_end":"2025-11-29T21:00:00.000000Z","options_count":0,"reviews_count":0,"manage_stock":1,"qty":"720.00","new_from":"2020-04-22T03:00:00.000000Z","new_to":"2020-05-23T03:00:00.000000Z","sale_unit_id":null,"list_variants_separately":false,"id":15,"slug":"fjfj3545-test-urunu-84536-test-urunu-84536","base_image":{"id":2,"filename":"G9NTv78PyOutz8tobeUq3hEx6ayZmrYBR7FwoCKy.jpeg","path":"http:\/\/localhost:8001\/storage\/media\/4lD37SIcc4SE6yvZRt3TiUN7To3A8ER8iodjn5Cz.jpeg"},"additional_images":[],"media":[{"id":2,"filename":"G9NTv78PyOutz8tobeUq3hEx6ayZmrYBR7FwoCKy.jpeg","path":"http:\/\/localhost:8001\/storage\/media\/4lD37SIcc4SE6yvZRt3TiUN7To3A8ER8iodjn5Cz.jpeg"}],"formatted_price":"<span class='special-price'>\u20ba\u00a043.00<\/span> <span class='previous-price'>\u20ba\u00a069.00<\/span>","formatted_price_range":null,"has_percentage_special_price":false,"special_price_percent":null,"rating_percent":0,"does_manage_stock":true,"is_in_stock":true,"is_out_of_stock":false,"is_new":false,"variant":null,"unit_min":0,"unit_step":1,"unit_suffix":"","unit_decimal":false,"unit_info_top":null,"unit_info_bottom":null,"unit_default_qty":1,"name":"fjfj3545 Test \u00dcr\u00fcn\u00fc 84536 Test \u00dcr\u00fcn\u00fc 84536","sale_unit":null,"reviews":[],"variants":[]},{"price":{"amount":"69.0000","formatted":"\u20ba\u00a069.00","currency":"TRY","inCurrentCurrency":{"amount":69,"formatted":"\u20ba\u00a069.00","currency":"TRY"}},"special_price":{"amount":"43.0000","formatted":"\u20ba\u00a043.00","currency":"TRY","inCurrentCurrency":{"amount":43,"formatted":"\u20ba\u00a043.00","currency":"TRY"}},"special_price_type":"fixed","selling_price":{"amount":"69.0000","formatted":"\u20ba\u00a069.00","currency":"TRY","inCurrentCurrency":{"amount":69,"formatted":"\u20ba\u00a069.00","currency":"TRY"}},"special_price_start":"2025-11-24T21:00:00.000000Z","special_price_end":"2025-11-25T21:00:00.000000Z","options_count":0,"reviews_count":3,"manage_stock":1,"qty":"5.00","new_from":"2020-04-23T06:00:00.000000Z","new_to":"2020-05-24T06:00:00.000000Z","sale_unit_id":null,"list_variants_separately":false,"id":11,"slug":"test-urunu-84536","base_image":{"id":12,"filename":"WhatsApp Image 2025-11-11 at 17.32.33.jpeg","path":"http:\/\/localhost:8001\/storage\/media\/12un1MEm4j2jv7kVtggjwi6DvGusatylOBswjfOV.jpg"},"additional_images":[],"media":[{"id":12,"filename":"WhatsApp Image 2025-11-11 at 17.32.33.jpeg","path":"http:\/\/localhost:8001\/storage\/media\/12un1MEm4j2jv7kVtggjwi6DvGusatylOBswjfOV.jpg"}],"formatted_price":"\u20ba\u00a069.00","formatted_price_range":null,"has_percentage_special_price":false,"special_price_percent":null,"rating_percent":93.33333333333333,"does_manage_stock":true,"is_in_stock":true,"is_out_of_stock":false,"is_new":false,"variant":null,"unit_min":0,"unit_step":1,"unit_suffix":"","unit_decimal":false,"unit_info_top":null,"unit_info_bottom":null,"unit_default_qty":1,"name":"Test \u00dcr\u00fcn\u00fc 84536 Test \u00dcr\u00fcn\u00fc 84536","sale_unit":null,"reviews":[{"id":4,"reviewer_id":1,"product_id":11,"rating":5,"reviewer_name":"1324","comment":"esdfsda","is_approved":true,"created_at":"2025-11-27T22:53:12.000000Z","updated_at":"2025-11-27T22:53:12.000000Z","option_color":null,"option_size":null,"rating_percent":100,"status":"Approved","created_at_formatted":"Nov 28, 2025"},{"id":10,"reviewer_id":1,"product_id":11,"rating":5,"reviewer_name":"dfbdfb","comment":"sdgdfxb","is_approved":true,"created_at":"2025-11-29T15:53:44.000000Z","updated_at":"2025-11-29T15:53:44.000000Z","option_color":null,"option_size":null,"rating_percent":100,"status":"Approved","created_at_formatted":"Nov 29, 2025"},{"id":11,"reviewer_id":1,"product_id":11,"rating":4,"reviewer_name":"dfshgsdf","comment":"dfsgfsdg","is_approved":true,"created_at":"2025-11-29T19:57:22.000000Z","updated_at":"2025-11-29T19:57:22.000000Z","option_color":null,"option_size":null,"rating_percent":80,"status":"Approved","created_at_formatted":"Nov 29, 2025"}],"variants":[]},{"price":{"amount":"69.0000","formatted":"\u20ba\u00a069.00","currency":"TRY","inCurrentCurrency":{"amount":69,"formatted":"\u20ba\u00a069.00","currency":"TRY"}},"special_price":null,"special_price_type":"fixed","selling_price":{"amount":"69.0000","formatted":"\u20ba\u00a069.00","currency":"TRY","inCurrentCurrency":{"amount":69,"formatted":"\u20ba\u00a069.00","currency":"TRY"}},"special_price_start":null,"special_price_end":null,"options_count":0,"reviews_count":0,"manage_stock":1,"qty":"5.80","new_from":"2020-04-23T18:00:00.000000Z","new_to":"2020-05-24T18:00:00.000000Z","sale_unit_id":1,"list_variants_separately":false,"id":10,"slug":"test-urunu-8","base_image":{"id":6,"filename":"OLED55C3PSA-OLED-TV-DZ-03.jpg","path":"http:\/\/localhost:8001\/storage\/media\/5VW8ithPuJnUm5BJ9cWc6mmPP9bE4Q0w3ZvLxe6R.jpg"},"additional_images":[],"media":[{"id":6,"filename":"OLED55C3PSA-OLED-TV-DZ-03.jpg","path":"http:\/\/localhost:8001\/storage\/media\/5VW8ithPuJnUm5BJ9cWc6mmPP9bE4Q0w3ZvLxe6R.jpg"}],"formatted_price":"\u20ba\u00a069.00","formatted_price_range":null,"has_percentage_special_price":false,"special_price_percent":null,"rating_percent":0,"does_manage_stock":true,"is_in_stock":true,"is_out_of_stock":false,"is_new":false,"variant":null,"unit_min":0.5,"unit_step":0.5,"unit_suffix":"m","unit_decimal":true,"unit_info_top":"Bu \u00dcr\u00fcn Metre \u0130le Sat\u0131lmaktad\u0131r L\u00fctfen Sat\u0131n Almak \u0130stedi\u011finiz \u00d6l\u00e7\u00fcy\u00fc Yaz\u0131p Sepete Ekleyin","unit_info_bottom":"Min. Kuma\u015f Kesimi 0.5m","unit_default_qty":1,"name":"Test \u00dcr\u00fcn\u00fc 8","sale_unit":{"id":1,"code":"1","name":"Metre","label":"Metre","step":"0.50","min":"0.50","default_qty":"1.00","is_default":false,"is_decimal_stock":true,"short_suffix":"m","info":"test info 1","info_top":"Bu \u00dcr\u00fcn Metre \u0130le Sat\u0131lmaktad\u0131r L\u00fctfen Sat\u0131n Almak \u0130stedi\u011finiz \u00d6l\u00e7\u00fcy\u00fc Yaz\u0131p Sepete Ekleyin","info_bottom":"Min. Kuma\u015f Kesimi 0.5m","created_at":"2025-11-26T23:40:54.000000Z","updated_at":"2025-11-27T01:35:18.000000Z"},"reviews":[],"variants":[]},{"price":{"amount":null,"formatted":"\u20ba\u00a00.00","currency":"TRY","inCurrentCurrency":{"amount":0,"formatted":"\u20ba\u00a00.00","currency":"TRY"}},"special_price":null,"special_price_type":"fixed","selling_price":{"amount":null,"formatted":"\u20ba\u00a00.00","currency":"TRY","inCurrentCurrency":{"amount":0,"formatted":"\u20ba\u00a00.00","currency":"TRY"}},"special_price_start":null,"special_price_end":null,"options_count":0,"reviews_count":0,"manage_stock":0,"qty":null,"new_from":"2020-04-20T21:00:00.000000Z","new_to":"2020-05-21T21:00:00.000000Z","sale_unit_id":1,"list_variants_separately":true,"id":1,"slug":"cizgili-duck-kumas","base_image":{"id":25,"filename":"ipligi-boyali-ince-cizgili-elit-kanvas-dokuma-duck-kumas (1).jpg","path":"http:\/\/localhost:8001\/storage\/media\/Izq60V8WDcuOMu9D7m7eAJuZzGpilZLg2t9lKmoh.jpg"},"additional_images":[],"media":[{"id":26,"filename":"ipligi-boyali-ince-cizgili-elit-kanvas-dokuma-duck-kumas.jpg","path":"http:\/\/localhost:8001\/storage\/media\/CKOzCvarvy3ykLR28TwtrqqNKbu60tlaxVj1JzGR.jpg"}],"formatted_price":"<span class='special-price'>\u20ba\u00a050.00<\/span> <span class='previous-price'>\u20ba\u00a0100.00<\/span>","formatted_price_range":null,"has_percentage_special_price":false,"special_price_percent":null,"rating_percent":0,"does_manage_stock":false,"is_in_stock":false,"is_out_of_stock":true,"is_new":false,"variant":{"id":15,"uid":"88794c87a3a8fb23fb20b590122c57a3","uids":"grs2x38scfu8","product_id":1,"name":"Ye\u015fil","price":{"amount":"100.0000","formatted":"\u20ba\u00a0100.00","currency":"TRY","inCurrentCurrency":{"amount":100,"formatted":"\u20ba\u00a0100.00","currency":"TRY"}},"special_price":{"amount":"50.0000","formatted":"\u20ba\u00a050.00","currency":"TRY","inCurrentCurrency":{"amount":50,"formatted":"\u20ba\u00a050.00","currency":"TRY"}},"special_price_type":"fixed","special_price_start":"2025-11-28T21:00:00.000000Z","special_price_end":"2025-12-30T21:00:00.000000Z","selling_price":{"amount":"50.0000","formatted":"\u20ba\u00a050.00","currency":"TRY","inCurrentCurrency":{"amount":50,"formatted":"\u20ba\u00a050.00","currency":"TRY"}},"sku":"NMA1162","manage_stock":1,"qty":"25.50","in_stock":1,"is_default":true,"is_active":true,"position":1,"deleted_at":null,"created_at":"2025-11-29T19:10:44.000000Z","updated_at":"2025-11-29T19:10:44.000000Z","base_image":{"id":25,"filename":"ipligi-boyali-ince-cizgili-elit-kanvas-dokuma-duck-kumas (1).jpg","path":"http:\/\/localhost:8001\/storage\/media\/Izq60V8WDcuOMu9D7m7eAJuZzGpilZLg2t9lKmoh.jpg"},"additional_images":[],"media":[{"id":25,"filename":"ipligi-boyali-ince-cizgili-elit-kanvas-dokuma-duck-kumas (1).jpg","path":"http:\/\/localhost:8001\/storage\/media\/Izq60V8WDcuOMu9D7m7eAJuZzGpilZLg2t9lKmoh.jpg"}],"formatted_price":"<span class='special-price'>\u20ba\u00a050.00<\/span> <span class='previous-price'>\u20ba\u00a0100.00<\/span>","has_percentage_special_price":false,"special_price_percent":null,"does_manage_stock":true,"is_in_stock":true,"is_out_of_stock":false,"files":[{"id":25,"filename":"ipligi-boyali-ince-cizgili-elit-kanvas-dokuma-duck-kumas (1).jpg","path":"http:\/\/localhost:8001\/storage\/media\/Izq60V8WDcuOMu9D7m7eAJuZzGpilZLg2t9lKmoh.jpg"}]},"unit_min":0.5,"unit_step":0.5,"unit_suffix":"m","unit_decimal":true,"unit_info_top":"Bu \u00dcr\u00fcn Metre \u0130le Sat\u0131lmaktad\u0131r L\u00fctfen Sat\u0131n Almak \u0130stedi\u011finiz \u00d6l\u00e7\u00fcy\u00fc Yaz\u0131p Sepete Ekleyin","unit_info_bottom":"Min. Kuma\u015f Kesimi 0.5m","unit_default_qty":1,"name":"\u00c7izgili Duck Kuma\u015f","sale_unit":{"id":1,"code":"1","name":"Metre","label":"Metre","step":"0.50","min":"0.50","default_qty":"1.00","is_default":false,"is_decimal_stock":true,"short_suffix":"m","info":"test info 1","info_top":"Bu \u00dcr\u00fcn Metre \u0130le Sat\u0131lmaktad\u0131r L\u00fctfen Sat\u0131n Almak \u0130stedi\u011finiz \u00d6l\u00e7\u00fcy\u00fc Yaz\u0131p Sepete Ekleyin","info_bottom":"Min. Kuma\u015f Kesimi 0.5m","created_at":"2025-11-26T23:40:54.000000Z","updated_at":"2025-11-27T01:35:18.000000Z"},"reviews":[],"variants":[{"id":15,"uid":"88794c87a3a8fb23fb20b590122c57a3","uids":"grs2x38scfu8","product_id":1,"name":"Ye\u015fil","price":{"amount":"100.0000","formatted":"\u20ba\u00a0100.00","currency":"TRY","inCurrentCurrency":{"amount":100,"formatted":"\u20ba\u00a0100.00","currency":"TRY"}},"special_price":{"amount":"50.0000","formatted":"\u20ba\u00a050.00","currency":"TRY","inCurrentCurrency":{"amount":50,"formatted":"\u20ba\u00a050.00","currency":"TRY"}},"special_price_type":"fixed","special_price_start":"2025-11-28T21:00:00.000000Z","special_price_end":"2025-12-30T21:00:00.000000Z","selling_price":{"amount":"50.0000","formatted":"\u20ba\u00a050.00","currency":"TRY","inCurrentCurrency":{"amount":50,"formatted":"\u20ba\u00a050.00","currency":"TRY"}},"sku":"NMA1162","manage_stock":1,"qty":"25.50","in_stock":1,"is_default":true,"is_active":true,"position":1,"deleted_at":null,"created_at":"2025-11-29T19:10:44.000000Z","updated_at":"2025-11-29T19:10:44.000000Z","base_image":{"id":25,"filename":"ipligi-boyali-ince-cizgili-elit-kanvas-dokuma-duck-kumas (1).jpg","path":"http:\/\/localhost:8001\/storage\/media\/Izq60V8WDcuOMu9D7m7eAJuZzGpilZLg2t9lKmoh.jpg"},"additional_images":[],"media":[{"id":25,"filename":"ipligi-boyali-ince-cizgili-elit-kanvas-dokuma-duck-kumas (1).jpg","path":"http:\/\/localhost:8001\/storage\/media\/Izq60V8WDcuOMu9D7m7eAJuZzGpilZLg2t9lKmoh.jpg"}],"formatted_price":"<span class='special-price'>\u20ba\u00a050.00<\/span> <span class='previous-price'>\u20ba\u00a0100.00<\/span>","has_percentage_special_price":false,"special_price_percent":null,"does_manage_stock":true,"is_in_stock":true,"is_out_of_stock":false,"files":[{"id":25,"filename":"ipligi-boyali-ince-cizgili-elit-kanvas-dokuma-duck-kumas (1).jpg","path":"http:\/\/localhost:8001\/storage\/media\/Izq60V8WDcuOMu9D7m7eAJuZzGpilZLg2t9lKmoh.jpg"}]},{"id":16,"uid":"eca840e3d6f91db93ed91c5b473c0f17","uids":"ait8y1lquxro","product_id":1,"name":"Bej","price":{"amount":"100.0000","formatted":"\u20ba\u00a0100.00","currency":"TRY","inCurrentCurrency":{"amount":100,"formatted":"\u20ba\u00a0100.00","currency":"TRY"}},"special_price":{"amount":"64.0000","formatted":"\u20ba\u00a064.00","currency":"TRY","inCurrentCurrency":{"amount":64,"formatted":"\u20ba\u00a064.00","currency":"TRY"}},"special_price_type":"fixed","special_price_start":"2025-11-28T21:00:00.000000Z","special_price_end":"2025-12-30T21:00:00.000000Z","selling_price":{"amount":"64.0000","formatted":"\u20ba\u00a064.00","currency":"TRY","inCurrentCurrency":{"amount":64,"formatted":"\u20ba\u00a064.00","currency":"TRY"}},"sku":"EJF1663","manage_stock":1,"qty":"10.70","in_stock":1,"is_default":false,"is_active":true,"position":2,"deleted_at":null,"created_at":"2025-11-29T19:10:44.000000Z","updated_at":"2025-11-29T19:10:44.000000Z","base_image":{"id":24,"filename":"ipligi-boyali-ince-cizgili-elit-kanvas-dokuma-duck-kumas (2).jpg","path":"http:\/\/localhost:8001\/storage\/media\/vGNHcNiEYeagStBAzsvLn0THjkO58vapY899UphG.jpg"},"additional_images":[],"media":[{"id":24,"filename":"ipligi-boyali-ince-cizgili-elit-kanvas-dokuma-duck-kumas (2).jpg","path":"http:\/\/localhost:8001\/storage\/media\/vGNHcNiEYeagStBAzsvLn0THjkO58vapY899UphG.jpg"}],"formatted_price":"<span class='special-price'>\u20ba\u00a064.00<\/span> <span class='previous-price'>\u20ba\u00a0100.00<\/span>","has_percentage_special_price":false,"special_price_percent":null,"does_manage_stock":true,"is_in_stock":true,"is_out_of_stock":false,"files":[{"id":24,"filename":"ipligi-boyali-ince-cizgili-elit-kanvas-dokuma-duck-kumas (2).jpg","path":"http:\/\/localhost:8001\/storage\/media\/vGNHcNiEYeagStBAzsvLn0THjkO58vapY899UphG.jpg"}]},{"id":17,"uid":"b8282028810cfb423d2640842e798861","uids":"aqc41mndutyu","product_id":1,"name":"Bordo","price":{"amount":"942.0000","formatted":"\u20ba\u00a0942.00","currency":"TRY","inCurrentCurrency":{"amount":942,"formatted":"\u20ba\u00a0942.00","currency":"TRY"}},"special_price":{"amount":"100.0000","formatted":"\u20ba\u00a0100.00","currency":"TRY","inCurrentCurrency":{"amount":100,"formatted":"\u20ba\u00a0100.00","currency":"TRY"}},"special_price_type":"fixed","special_price_start":"2025-11-28T21:00:00.000000Z","special_price_end":"2025-12-30T21:00:00.000000Z","selling_price":{"amount":"100.0000","formatted":"\u20ba\u00a0100.00","currency":"TRY","inCurrentCurrency":{"amount":100,"formatted":"\u20ba\u00a0100.00","currency":"TRY"}},"sku":"DRH5002","manage_stock":1,"qty":"80.60","in_stock":1,"is_default":false,"is_active":true,"position":3,"deleted_at":null,"created_at":"2025-11-29T19:10:44.000000Z","updated_at":"2025-11-29T19:10:44.000000Z","base_image":{"id":23,"filename":"ipligi-boyali-ince-cizgili-elit-kanvas-dokuma-duck-kumas (3).jpg","path":"http:\/\/localhost:8001\/storage\/media\/pJNmxseuK8CEG0m6jCMQERcxshBriF4eEXrbtgzB.jpg"},"additional_images":[],"media":[{"id":23,"filename":"ipligi-boyali-ince-cizgili-elit-kanvas-dokuma-duck-kumas (3).jpg","path":"http:\/\/localhost:8001\/storage\/media\/pJNmxseuK8CEG0m6jCMQERcxshBriF4eEXrbtgzB.jpg"}],"formatted_price":"<span class='special-price'>\u20ba\u00a0100.00<\/span> <span class='previous-price'>\u20ba\u00a0942.00<\/span>","has_percentage_special_price":false,"special_price_percent":null,"does_manage_stock":true,"is_in_stock":true,"is_out_of_stock":false,"files":[{"id":23,"filename":"ipligi-boyali-ince-cizgili-elit-kanvas-dokuma-duck-kumas (3).jpg","path":"http:\/\/localhost:8001\/storage\/media\/pJNmxseuK8CEG0m6jCMQERcxshBriF4eEXrbtgzB.jpg"}]}],"url":"http:\/\/localhost:8001\/products\/cizgili-duck-kumas?variant=88794c87a3a8fb23fb20b590122c57a3"}],"first_page_url":"http:\/\/localhost:8001\/products?perPage=5&sort=latest&page=1","from":1,"last_page":2,"last_page_url":"http:\/\/localhost:8001\/products?perPage=5&sort=latest&page=2","links":[{"url":null,"label":"pagination.previous","active":false},{"url":"http:\/\/localhost:8001\/products?perPage=5&sort=latest&page=1","label":"1","active":true},{"url":"http:\/\/localhost:8001\/products?perPage=5&sort=latest&page=2","label":"2","active":false},{"url":"http:\/\/localhost:8001\/products?perPage=5&sort=latest&page=2","label":"pagination.next","active":false}],"next_page_url":"http:\/\/localhost:8001\/products?perPage=5&sort=latest&page=2","path":"http:\/\/localhost:8001\/products","per_page":5,"prev_page_url":null,"to":5,"total":7},"attributes":[]}
